year-month,cadSexo,types_actP,types_ini,types_intev,types_req
1980-11,F,0.0,118.0,0.0,0.0
1980-11,M,0.0,422.0,0.0,0.0
1980-12,F,0.0,121.0,0.0,0.0
1980-12,M,0.0,456.0,0.0,0.0
1981-01,F,0.0,128.0,0.0,0.0
1981-01,M,0.0,487.0,0.0,0.0
1981-02,F,0.0,131.0,0.0,0.0
1981-02,M,0.0,502.0,0.0,0.0
1981-03,M,0.0,515.0,0.0,0.0
1981-04,F,0.0,134.0,0.0,0.0
1981-04,M,0.0,547.0,0.0,0.0
1981-05,F,0.0,146.0,0.0,0.0
1981-05,M,0.0,592.0,0.0,0.0
1981-06,F,0.0,152.0,0.0,0.0
1981-06,M,0.0,632.0,0.0,0.0
1981-07,F,0.0,153.0,0.0,0.0
1981-07,M,0.0,640.0,0.0,0.0
1981-09,F,0.0,158.0,0.0,0.0
1981-09,M,0.0,645.0,0.0,0.0
1981-10,F,0.0,170.0,0.0,0.0
1981-10,M,0.0,686.0,0.0,0.0
1981-11,F,0.0,174.0,0.0,0.0
1981-11,M,0.0,701.0,0.0,0.0
1981-12,F,0.0,178.0,0.0,0.0
1981-12,M,0.0,726.0,0.0,0.0
1982-01,F,0.0,183.0,0.0,0.0
1982-01,M,0.0,751.0,0.0,0.0
1982-02,F,0.0,196.0,0.0,0.0
1982-02,M,2.0,789.0,0.0,0.0
1982-03,F,0.0,200.0,0.0,0.0
1982-03,M,2.0,808.0,0.0,0.0
1982-04,F,0.0,205.0,0.0,0.0
1982-04,M,7.0,821.0,0.0,0.0
1982-05,F,0.0,236.0,0.0,0.0
1982-05,M,10.0,920.0,0.0,0.0
1982-06,F,0.0,239.0,0.0,0.0
1982-06,M,10.0,945.0,0.0,0.0
1982-07,F,0.0,246.0,0.0,0.0
1982-07,M,10.0,980.0,0.0,0.0
1982-08,M,10.0,985.0,0.0,0.0
1982-10,F,1.0,267.0,0.0,0.0
1982-10,M,13.0,1056.0,0.0,0.0
1982-11,M,13.0,1064.0,0.0,0.0
1982-12,F,1.0,271.0,0.0,0.0
1982-12,M,13.0,1084.0,0.0,0.0
1983-01,F,1.0,284.0,0.0,0.0
1983-01,M,13.0,1115.0,0.0,0.0
1983-02,F,1.0,289.0,0.0,0.0
1983-02,M,13.0,1128.0,0.0,0.0
1983-05,F,1.0,294.0,0.0,0.0
1983-05,M,13.0,1164.0,3.0,0.0
1983-06,F,1.0,414.0,12.0,0.0
1983-06,M,17.0,1452.0,174.0,0.0
1983-07,F,1.0,418.0,52.0,0.0
1983-07,M,17.0,1476.0,609.0,0.0
1983-09,F,1.0,420.0,53.0,0.0
1983-09,M,17.0,1498.0,618.0,0.0
1983-10,F,1.0,421.0,53.0,0.0
1983-10,M,17.0,1527.0,619.0,0.0
1983-11,F,1.0,433.0,53.0,0.0
1983-11,M,17.0,1553.0,619.0,0.0
1983-12,F,1.0,438.0,53.0,0.0
1983-12,M,17.0,1570.0,619.0,0.0
1984-01,F,3.0,469.0,53.0,0.0
1984-01,M,20.0,1650.0,619.0,0.0
1984-02,F,3.0,474.0,53.0,0.0
1984-02,M,20.0,1681.0,619.0,0.0
1984-03,F,3.0,493.0,53.0,0.0
1984-03,M,22.0,1770.0,619.0,0.0
1984-04,F,3.0,504.0,53.0,0.0
1984-04,M,22.0,1816.0,619.0,0.0
1984-05,F,3.0,519.0,53.0,0.0
1984-05,M,22.0,1880.0,619.0,0.0
1984-06,F,3.0,528.0,53.0,0.0
1984-06,M,22.0,1904.0,619.0,0.0
1984-07,F,3.0,530.0,53.0,0.0
1984-07,M,22.0,1947.0,619.0,0.0
1984-09,F,3.0,531.0,53.0,0.0
1984-09,M,22.0,1951.0,619.0,0.0
1984-10,F,4.0,534.0,53.0,0.0
1984-10,M,22.0,1984.0,619.0,0.0
1984-11,F,4.0,538.0,53.0,0.0
1984-11,M,22.0,2010.0,619.0,0.0
1984-12,F,4.0,552.0,53.0,0.0
1984-12,M,22.0,2054.0,619.0,0.0
1985-01,F,4.0,565.0,53.0,0.0
1985-01,M,22.0,2095.0,619.0,0.0
1985-02,F,4.0,568.0,53.0,0.0
1985-02,M,22.0,2105.0,619.0,0.0
1985-03,F,4.0,580.0,53.0,0.0
1985-03,M,22.0,2147.0,619.0,0.0
1985-04,F,4.0,591.0,53.0,0.0
1985-04,M,22.0,2190.0,619.0,0.0
1985-05,F,4.0,616.0,53.0,0.0
1985-05,M,22.0,2251.0,619.0,0.0
1985-06,F,4.0,622.0,53.0,0.0
1985-06,M,22.0,2291.0,619.0,0.0
1985-07,F,4.0,639.0,53.0,0.0
1985-07,M,22.0,2337.0,619.0,0.0
1985-10,F,7.0,639.0,53.0,0.0
1985-10,M,28.0,2337.0,619.0,0.0
1985-11,F,7.0,697.0,53.0,0.0
1985-11,M,28.0,2570.0,619.0,0.0
1985-12,F,8.0,699.0,53.0,0.0
1985-12,M,28.0,2630.0,619.0,0.0
1986-01,F,9.0,708.0,53.0,0.0
1986-01,M,28.0,2685.0,619.0,0.0
1986-02,F,9.0,714.0,53.0,0.0
1986-02,M,28.0,2726.0,619.0,0.0
1986-03,F,9.0,722.0,53.0,0.0
1986-03,M,28.0,2759.0,619.0,0.0
1986-04,F,10.0,735.0,53.0,0.0
1986-04,M,28.0,2793.0,619.0,0.0
1986-05,F,10.0,746.0,53.0,0.0
1986-05,M,28.0,2858.0,619.0,0.0
1986-06,F,10.0,761.0,53.0,0.0
1986-06,M,28.0,2918.0,619.0,0.0
1986-07,F,11.0,768.0,53.0,0.0
1986-07,M,29.0,2954.0,619.0,0.0
1986-08,M,29.0,2962.0,619.0,0.0
1986-09,F,11.0,771.0,53.0,0.0
1986-09,M,29.0,2974.0,619.0,0.0
1986-10,F,11.0,780.0,53.0,0.0
1986-10,M,29.0,3027.0,619.0,0.0
1986-11,F,12.0,787.0,53.0,0.0
1986-11,M,29.0,3074.0,619.0,0.0
1986-12,F,12.0,790.0,53.0,0.0
1986-12,M,29.0,3101.0,619.0,0.0
1987-01,F,14.0,798.0,53.0,0.0
1987-01,M,34.0,3203.0,619.0,0.0
1987-02,F,14.0,813.0,53.0,0.0
1987-02,M,34.0,3252.0,619.0,0.0
1987-03,F,14.0,825.0,53.0,0.0
1987-03,M,34.0,3318.0,619.0,0.0
1987-04,F,16.0,839.0,53.0,0.0
1987-04,M,38.0,3377.0,619.0,0.0
1987-08,F,16.0,841.0,58.0,0.0
1987-08,M,38.0,3420.0,694.0,0.0
1987-09,F,16.0,841.0,60.0,0.0
1987-09,M,38.0,3435.0,737.0,0.0
1987-10,F,16.0,875.0,78.0,0.0
1987-10,M,40.0,3632.0,860.0,0.0
1987-11,F,17.0,907.0,102.0,0.0
1987-11,M,65.0,3779.0,1045.0,0.0
1987-12,F,19.0,929.0,165.0,0.0
1987-12,M,73.0,3871.0,1803.0,0.0
1988-01,F,23.0,960.0,179.0,0.0
1988-01,M,85.0,3963.0,2118.0,0.0
1988-02,F,26.0,994.0,232.0,0.0
1988-02,M,91.0,4068.0,2586.0,0.0
1988-03,F,30.0,1014.0,270.0,0.0
1988-03,M,101.0,4172.0,3076.0,0.0
1988-04,F,30.0,1038.0,325.0,0.0
1988-04,M,106.0,4285.0,3972.0,0.0
1988-05,F,30.0,1054.0,355.0,0.0
1988-05,M,117.0,4438.0,4365.0,0.0
1988-06,F,33.0,1077.0,384.0,0.0
1988-06,M,131.0,4486.0,4912.0,0.0
1988-07,F,33.0,1104.0,415.0,0.0
1988-07,M,147.0,4567.0,5207.0,0.0
1988-09,F,33.0,1107.0,430.0,0.0
1988-09,M,149.0,4589.0,5286.0,0.0
1988-10,F,34.0,1134.0,445.0,0.0
1988-10,M,161.0,4682.0,5423.0,0.0
1988-11,F,39.0,1147.0,491.0,0.0
1988-11,M,165.0,4731.0,5790.0,0.0
1988-12,F,39.0,1156.0,525.0,0.0
1988-12,M,169.0,4753.0,6197.0,0.0
1989-01,F,39.0,1167.0,567.0,0.0
1989-01,M,169.0,4816.0,6502.0,0.0
1989-02,F,50.0,1178.0,604.0,0.0
1989-02,M,205.0,4878.0,6754.0,0.0
1989-03,F,53.0,1220.0,634.0,0.0
1989-03,M,234.0,4972.0,6980.0,0.0
1989-04,F,53.0,1260.0,681.0,0.0
1989-04,M,251.0,5120.0,7673.0,0.0
1989-05,F,53.0,1303.0,773.0,0.0
1989-05,M,252.0,5247.0,8749.0,0.0
1989-06,F,56.0,1315.0,806.0,0.0
1989-06,M,271.0,5311.0,8923.0,0.0
1989-07,F,57.0,1328.0,832.0,0.0
1989-07,M,298.0,5357.0,9048.0,0.0
1989-08,M,298.0,5362.0,9048.0,0.0
1989-09,F,57.0,1330.0,833.0,0.0
1989-09,M,305.0,5378.0,9092.0,0.0
1989-10,F,58.0,1338.0,837.0,0.0
1989-10,M,316.0,5428.0,9156.0,0.0
1989-11,F,63.0,1356.0,837.0,0.0
1989-11,M,362.0,5524.0,9156.0,0.0
1989-12,F,66.0,1362.0,837.0,0.0
1989-12,M,408.0,5570.0,9156.0,0.0
1990-01,F,71.0,1381.0,837.0,0.0
1990-01,M,460.0,5664.0,9158.0,0.0
1990-02,F,72.0,1403.0,837.0,0.0
1990-02,M,487.0,5752.0,9158.0,0.0
1990-03,F,74.0,1452.0,839.0,0.0
1990-03,M,517.0,5987.0,9162.0,0.0
1990-04,F,82.0,1497.0,839.0,0.0
1990-04,M,558.0,6110.0,9162.0,0.0
1990-05,F,83.0,1524.0,839.0,0.0
1990-05,M,577.0,6231.0,9162.0,0.0
1990-06,F,91.0,1560.0,839.0,0.0
1990-06,M,599.0,6395.0,9162.0,0.0
1990-07,F,93.0,1575.0,839.0,0.0
1990-07,M,600.0,6492.0,9162.0,0.0
1990-08,F,102.0,1578.0,839.0,0.0
1990-08,M,613.0,6515.0,9162.0,0.0
1990-09,F,102.0,1582.0,839.0,0.0
1990-09,M,620.0,6531.0,9162.0,0.0
1990-10,F,104.0,1606.0,846.0,0.0
1990-10,M,629.0,6689.0,9271.0,0.0
1990-11,F,109.0,1643.0,874.0,0.0
1990-11,M,647.0,6861.0,9471.0,0.0
1990-12,F,109.0,1650.0,898.0,0.0
1990-12,M,650.0,6952.0,9643.0,0.0
1991-01,F,109.0,1680.0,911.0,0.0
1991-01,M,669.0,7063.0,9767.0,0.0
1991-02,F,111.0,1723.0,932.0,0.0
1991-02,M,703.0,7239.0,9967.0,0.0
1991-03,F,122.0,1744.0,973.0,0.0
1991-03,M,736.0,7371.0,10118.0,0.0
1991-04,F,126.0,1787.0,994.0,0.0
1991-04,M,765.0,7549.0,10352.0,0.0
1991-05,F,139.0,1809.0,1018.0,0.0
1991-05,M,843.0,7634.0,10596.0,0.0
1991-06,F,142.0,1831.0,1068.0,0.0
1991-06,M,864.0,7745.0,10925.0,0.0
1991-07,F,147.0,1834.0,1068.0,0.0
1991-07,M,874.0,7780.0,10984.0,0.0
1991-08,M,891.0,7780.0,10988.0,0.0
1991-09,F,147.0,1836.0,1068.0,0.0
1991-09,M,901.0,7788.0,11037.0,0.0
1991-10,F,147.0,1836.0,1069.0,0.0
1991-10,M,902.0,7788.0,11043.0,0.0
1991-11,F,149.0,1859.0,1075.0,0.0
1991-11,M,909.0,7894.0,11160.0,0.0
1991-12,F,149.0,1877.0,1087.0,0.0
1991-12,M,909.0,7973.0,11294.0,0.0
1992-01,F,150.0,1900.0,1116.0,0.0
1992-01,M,918.0,8156.0,11553.0,0.0
1992-02,F,150.0,1924.0,1143.0,0.0
1992-02,M,920.0,8231.0,11766.0,0.0
1992-03,F,150.0,1931.0,1190.0,0.0
1992-03,M,921.0,8360.0,12061.0,0.0
1992-04,F,150.0,1948.0,1222.0,0.0
1992-04,M,921.0,8458.0,12292.0,0.0
1992-05,F,150.0,1959.0,1263.0,0.0
1992-05,M,922.0,8573.0,12611.0,0.0
1992-06,F,150.0,1993.0,1298.0,0.0
1992-06,M,923.0,8686.0,12919.0,0.0
1992-07,F,150.0,2006.0,1335.0,0.0
1992-07,M,924.0,8773.0,13186.0,0.0
1992-09,F,150.0,2006.0,1336.0,0.0
1992-09,M,924.0,8782.0,13253.0,0.0
1992-10,F,150.0,2017.0,1345.0,0.0
1992-10,M,926.0,8898.0,13339.0,0.0
1992-11,F,150.0,2030.0,1371.0,0.0
1992-11,M,928.0,8999.0,13604.0,0.0
1992-12,F,150.0,2036.0,1395.0,0.0
1992-12,M,930.0,9045.0,13836.0,0.0
1993-01,F,151.0,2045.0,1429.0,0.0
1993-01,M,932.0,9091.0,14090.0,0.0
1993-02,F,151.0,2053.0,1461.0,0.0
1993-02,M,937.0,9151.0,14319.0,0.0
1993-03,F,154.0,2060.0,1506.0,0.0
1993-03,M,947.0,9270.0,14620.0,0.0
1993-04,F,154.0,2063.0,1526.0,0.0
1993-04,M,948.0,9314.0,14768.0,0.0
1993-05,F,154.0,2073.0,1550.0,0.0
1993-05,M,950.0,9400.0,15034.0,0.0
1993-06,F,154.0,2083.0,1575.0,0.0
1993-06,M,951.0,9493.0,15382.0,0.0
1993-07,F,154.0,2084.0,1582.0,0.0
1993-07,M,951.0,9502.0,15518.0,0.0
1993-08,F,154.0,2086.0,1584.0,0.0
1993-08,M,954.0,9503.0,15568.0,0.0
1993-09,F,161.0,2087.0,1584.0,0.0
1993-09,M,960.0,9504.0,15637.0,0.0
1993-10,F,161.0,2088.0,1587.0,0.0
1993-10,M,960.0,9566.0,15724.0,0.0
1993-11,F,161.0,2093.0,1627.0,0.0
1993-11,M,961.0,9617.0,15941.0,0.0
1993-12,F,161.0,2093.0,1637.0,0.0
1993-12,M,961.0,9632.0,16048.0,0.0
1994-01,F,161.0,2107.0,1675.0,0.0
1994-01,M,961.0,9715.0,16302.0,0.0
1994-02,F,161.0,2115.0,1700.0,0.0
1994-02,M,961.0,9785.0,16551.0,0.0
1994-03,F,161.0,2121.0,1734.0,0.0
1994-03,M,962.0,9837.0,16847.0,0.0
1994-04,F,161.0,2132.0,1761.0,0.0
1994-04,M,962.0,9962.0,17173.0,0.0
1994-05,F,161.0,2145.0,1779.0,0.0
1994-05,M,962.0,10053.0,17405.0,0.0
1994-06,F,162.0,2151.0,1796.0,0.0
1994-06,M,965.0,10112.0,17606.0,0.0
1994-07,F,162.0,2158.0,1813.0,0.0
1994-07,M,968.0,10194.0,17785.0,0.0
1994-09,F,162.0,2164.0,1813.0,0.0
1994-09,M,968.0,10267.0,17835.0,0.0
1994-10,F,162.0,2170.0,1821.0,0.0
1994-10,M,969.0,10352.0,17988.0,0.0
1994-11,F,162.0,2177.0,1846.0,0.0
1994-11,M,970.0,10475.0,18316.0,0.0
1994-12,F,162.0,2182.0,1867.0,0.0
1994-12,M,971.0,10532.0,18495.0,0.0
1995-01,F,162.0,2183.0,1888.0,0.0
1995-01,M,977.0,10582.0,18771.0,0.0
1995-02,F,163.0,2188.0,1912.0,0.0
1995-02,M,979.0,10662.0,19018.0,0.0
1995-03,F,163.0,2197.0,1940.0,0.0
1995-03,M,981.0,10758.0,19362.0,0.0
1995-04,F,163.0,2204.0,1953.0,0.0
1995-04,M,981.0,10860.0,19517.0,0.0
1995-05,F,163.0,2210.0,1978.0,0.0
1995-05,M,981.0,11001.0,19766.0,0.0
1995-06,F,163.0,2217.0,2012.0,0.0
1995-06,M,982.0,11105.0,20200.0,0.0
1995-07,F,163.0,2217.0,2016.0,0.0
1995-07,M,983.0,11105.0,20234.0,0.0
1995-08,M,985.0,11105.0,20234.0,0.0
1995-10,F,163.0,2227.0,2017.0,2.0
1995-10,M,985.0,11230.0,20244.0,0.0
1995-11,F,163.0,2250.0,2054.0,20.0
1995-11,M,985.0,11323.0,20459.0,67.0
1995-12,F,163.0,2258.0,2078.0,40.0
1995-12,M,985.0,11402.0,20668.0,172.0
1996-01,F,163.0,2269.0,2112.0,65.0
1996-01,M,987.0,11513.0,20992.0,346.0
1996-02,F,163.0,2293.0,2151.0,92.0
1996-02,M,987.0,11687.0,21175.0,494.0
1996-03,F,163.0,2314.0,2214.0,119.0
1996-03,M,987.0,11859.0,21663.0,655.0
1996-04,F,163.0,2344.0,2276.0,149.0
1996-04,M,987.0,12004.0,21912.0,770.0
1996-05,F,163.0,2367.0,2352.0,193.0
1996-05,M,987.0,12122.0,22447.0,923.0
1996-06,F,163.0,2385.0,2437.0,213.0
1996-06,M,990.0,12218.0,22922.0,1051.0
1996-07,F,163.0,2393.0,2490.0,254.0
1996-07,M,990.0,12301.0,23162.0,1212.0
1996-08,F,163.0,2393.0,2490.0,259.0
1996-08,M,990.0,12302.0,23162.0,1242.0
1996-09,F,163.0,2397.0,2508.0,277.0
1996-09,M,990.0,12330.0,23278.0,1320.0
1996-10,F,163.0,2416.0,2556.0,309.0
1996-10,M,990.0,12472.0,23566.0,1531.0
1996-11,F,163.0,2419.0,2585.0,336.0
1996-11,M,990.0,12502.0,23725.0,1683.0
1996-12,F,163.0,2426.0,2624.0,355.0
1996-12,M,990.0,12595.0,24021.0,1770.0
1997-01,F,163.0,2430.0,2703.0,397.0
1997-01,M,990.0,12642.0,24311.0,1903.0
1997-02,F,163.0,2434.0,2784.0,426.0
1997-02,M,990.0,12685.0,24676.0,2057.0
1997-03,F,165.0,2439.0,2841.0,450.0
1997-03,M,990.0,12728.0,24895.0,2187.0
1997-04,F,165.0,2479.0,2886.0,468.0
1997-04,M,990.0,12903.0,25220.0,2286.0
1997-05,F,165.0,2495.0,2937.0,490.0
1997-05,M,990.0,13026.0,25457.0,2369.0
1997-06,F,165.0,2508.0,3009.0,517.0
1997-06,M,990.0,13110.0,25765.0,2456.0
1997-07,F,165.0,2515.0,3202.0,547.0
1997-07,M,990.0,13148.0,26864.0,2636.0
1997-08,F,165.0,2515.0,3202.0,549.0
1997-08,M,990.0,13148.0,26864.0,2638.0
1997-09,F,165.0,2520.0,3215.0,562.0
1997-09,M,990.0,13161.0,26925.0,2676.0
1997-10,F,165.0,2546.0,3294.0,586.0
1997-10,M,990.0,13300.0,27337.0,2767.0
1997-11,F,166.0,2555.0,3341.0,596.0
1997-11,M,990.0,13338.0,27543.0,2827.0
1997-12,F,166.0,2557.0,3355.0,600.0
1997-12,M,990.0,13350.0,27602.0,2849.0
1998-01,F,166.0,2571.0,3423.0,638.0
1998-01,M,990.0,13437.0,27847.0,2905.0
1998-02,F,166.0,2586.0,3478.0,687.0
1998-02,M,990.0,13593.0,28062.0,2951.0
1998-03,F,166.0,2598.0,3523.0,722.0
1998-03,M,990.0,13662.0,28369.0,3065.0
1998-04,F,166.0,2601.0,3579.0,732.0
1998-04,M,990.0,13689.0,28623.0,3158.0
1998-05,F,166.0,2616.0,3625.0,751.0
1998-05,M,990.0,13778.0,28918.0,3278.0
1998-06,F,166.0,2625.0,3677.0,761.0
1998-06,M,990.0,13862.0,29260.0,3391.0
1998-07,F,166.0,2627.0,3684.0,775.0
1998-07,M,990.0,13884.0,29283.0,3428.0
1998-08,M,990.0,13884.0,29283.0,3435.0
1998-09,F,166.0,2646.0,3713.0,783.0
1998-09,M,990.0,14001.0,29435.0,3501.0
1998-10,F,166.0,2656.0,3761.0,805.0
1998-10,M,990.0,14059.0,29704.0,3559.0
1998-11,F,166.0,2658.0,3781.0,829.0
1998-11,M,991.0,14080.0,29797.0,3617.0
1998-12,F,166.0,2662.0,3814.0,844.0
1998-12,M,991.0,14158.0,29941.0,3663.0
1999-01,F,166.0,2672.0,3840.0,861.0
1999-01,M,991.0,14277.0,30237.0,3760.0
1999-02,F,166.0,2682.0,3885.0,886.0
1999-02,M,991.0,14351.0,30492.0,3860.0
1999-03,F,166.0,2703.0,3963.0,896.0
1999-03,M,991.0,14491.0,30823.0,3969.0
1999-04,F,166.0,2715.0,4001.0,909.0
1999-04,M,991.0,14635.0,31110.0,4045.0
1999-05,F,166.0,2726.0,4069.0,949.0
1999-05,M,991.0,14724.0,31394.0,4131.0
1999-06,F,167.0,2730.0,4105.0,966.0
1999-06,M,993.0,14762.0,31611.0,4188.0
1999-07,F,167.0,2732.0,4120.0,980.0
1999-07,M,993.0,14774.0,31745.0,4243.0
1999-08,F,167.0,2732.0,4120.0,981.0
1999-08,M,993.0,14775.0,31745.0,4261.0
1999-09,F,167.0,2732.0,4124.0,989.0
1999-09,M,993.0,14775.0,31783.0,4298.0
1999-10,F,167.0,2739.0,4128.0,992.0
1999-10,M,993.0,14796.0,31804.0,4301.0
1999-11,F,167.0,2766.0,4204.0,1037.0
1999-11,M,993.0,14988.0,32135.0,4448.0
1999-12,F,167.0,2792.0,4268.0,1055.0
1999-12,M,993.0,15095.0,32453.0,4546.0
2000-01,F,167.0,2823.0,4334.0,1079.0
2000-01,M,993.0,15280.0,32808.0,4691.0
2000-02,F,167.0,2849.0,4363.0,1146.0
2000-02,M,993.0,15427.0,32931.0,4847.0
2000-03,F,167.0,2897.0,4446.0,1190.0
2000-03,M,993.0,15638.0,33336.0,5059.0
2000-04,F,167.0,2915.0,4507.0,1212.0
2000-04,M,993.0,15783.0,33609.0,5197.0
2000-05,F,167.0,2922.0,4584.0,1260.0
2000-05,M,993.0,15909.0,33947.0,5379.0
2000-06,F,167.0,2954.0,4650.0,1318.0
2000-06,M,993.0,16123.0,34254.0,5638.0
2000-07,F,167.0,2956.0,4685.0,1377.0
2000-07,M,993.0,16178.0,34459.0,5843.0
2000-08,F,167.0,2957.0,4685.0,1403.0
2000-08,M,993.0,16185.0,34459.0,5932.0
2000-09,F,167.0,2988.0,4730.0,1443.0
2000-09,M,993.0,16357.0,34582.0,6050.0
2000-10,F,167.0,3018.0,4802.0,1493.0
2000-10,M,993.0,16454.0,34902.0,6197.0
2000-11,F,167.0,3020.0,4862.0,1529.0
2000-11,M,993.0,16478.0,35110.0,6317.0
2000-12,F,167.0,3023.0,4913.0,1561.0
2000-12,M,993.0,16496.0,35320.0,6481.0
2001-01,F,167.0,3069.0,5006.0,1621.0
2001-01,M,994.0,16691.0,35623.0,6644.0
2001-02,F,167.0,3104.0,5124.0,1659.0
2001-02,M,997.0,16815.0,35998.0,6886.0
2001-03,F,168.0,3155.0,5222.0,1722.0
2001-03,M,1000.0,17088.0,36360.0,7179.0
2001-04,F,168.0,3174.0,5296.0,1769.0
2001-04,M,1001.0,17248.0,36660.0,7397.0
2001-05,F,168.0,3202.0,5368.0,1868.0
2001-05,M,1003.0,17409.0,37006.0,7731.0
2001-06,F,169.0,3224.0,5451.0,2180.0
2001-06,M,1004.0,17520.0,37367.0,7961.0
2001-07,F,170.0,3227.0,5459.0,2243.0
2001-07,M,1007.0,17557.0,37418.0,8072.0
2001-08,F,170.0,3227.0,5459.0,2277.0
2001-08,M,1007.0,17557.0,37418.0,8123.0
2001-09,F,170.0,3239.0,5494.0,2312.0
2001-09,M,1008.0,17631.0,37561.0,8212.0
2001-10,F,171.0,3264.0,5572.0,2336.0
2001-10,M,1009.0,17799.0,37942.0,8348.0
2001-11,F,171.0,3276.0,5643.0,2380.0
2001-11,M,1010.0,17858.0,38170.0,8508.0
2001-12,F,174.0,3291.0,5659.0,2391.0
2001-12,M,1029.0,17924.0,38248.0,8546.0
2002-01,F,174.0,3291.0,5663.0,2415.0
2002-01,M,1029.0,17924.0,38263.0,8605.0
2002-02,F,177.0,3291.0,5670.0,2424.0
2002-02,M,1045.0,17924.0,38294.0,8615.0
2002-03,F,182.0,3293.0,5670.0,2436.0
2002-03,M,1072.0,17931.0,38294.0,8627.0
2002-04,F,186.0,3309.0,5696.0,2453.0
2002-04,M,1095.0,18009.0,38413.0,8667.0
2002-05,F,186.0,3374.0,5755.0,2504.0
2002-05,M,1100.0,18304.0,38758.0,8869.0
2002-06,F,191.0,3427.0,5824.0,2569.0
2002-06,M,1119.0,18538.0,39039.0,9133.0
2002-07,F,191.0,3461.0,5895.0,2964.0
2002-07,M,1127.0,18700.0,39359.0,9452.0
2002-08,F,191.0,3461.0,5895.0,2972.0
2002-08,M,1127.0,18700.0,39359.0,9469.0
2002-09,F,203.0,3471.0,5941.0,3000.0
2002-09,M,1144.0,18762.0,39551.0,9638.0
2002-10,F,208.0,3521.0,6047.0,3053.0
2002-10,M,1173.0,19003.0,39873.0,9865.0
2002-11,F,213.0,3554.0,6115.0,3151.0
2002-11,M,1190.0,19121.0,40152.0,10043.0
2002-12,F,216.0,3644.0,6182.0,3183.0
2002-12,M,1215.0,19509.0,40440.0,10149.0
2003-01,F,237.0,3696.0,6258.0,3270.0
2003-01,M,1298.0,19817.0,40738.0,10606.0
2003-02,F,241.0,3740.0,6351.0,3340.0
2003-02,M,1310.0,19931.0,41049.0,11059.0
2003-03,F,254.0,3776.0,6483.0,3407.0
2003-03,M,1324.0,20080.0,41494.0,11288.0
2003-04,F,261.0,3809.0,6570.0,3464.0
2003-04,M,1345.0,20194.0,41829.0,11767.0
2003-05,F,271.0,3850.0,6677.0,3519.0
2003-05,M,1377.0,20333.0,42153.0,11966.0
2003-06,F,293.0,3867.0,6757.0,3570.0
2003-06,M,1413.0,20428.0,42378.0,12123.0
2003-07,F,297.0,3878.0,6833.0,3687.0
2003-07,M,1421.0,20468.0,42635.0,15393.0
2003-08,F,298.0,3886.0,6838.0,3690.0
2003-08,M,1440.0,20495.0,42654.0,15417.0
2003-09,F,316.0,3908.0,6893.0,3725.0
2003-09,M,1522.0,20566.0,42856.0,15505.0
2003-10,F,341.0,3927.0,6974.0,3810.0
2003-10,M,1623.0,20715.0,43275.0,16295.0
2003-11,F,345.0,3955.0,7007.0,3873.0
2003-11,M,1649.0,20847.0,43490.0,16421.0
2003-12,F,354.0,3977.0,7041.0,3949.0
2003-12,M,1673.0,21004.0,43719.0,16665.0
2004-01,F,357.0,4022.0,7109.0,3991.0
2004-01,M,1695.0,21181.0,44057.0,17873.0
2004-02,F,366.0,4063.0,7184.0,4061.0
2004-02,M,1726.0,21306.0,44341.0,18047.0
2004-03,F,369.0,4085.0,7316.0,4172.0
2004-03,M,1739.0,21378.0,44717.0,18341.0
2004-04,F,387.0,4104.0,7391.0,4200.0
2004-04,M,1804.0,21434.0,45050.0,18480.0
2004-05,F,412.0,4158.0,7505.0,4262.0
2004-05,M,1924.0,21613.0,45473.0,18769.0
2004-06,F,454.0,4171.0,7543.0,4288.0
2004-06,M,2035.0,21680.0,45639.0,18865.0
2004-07,F,471.0,4184.0,7611.0,4422.0
2004-07,M,2098.0,21723.0,45795.0,18945.0
2004-08,F,471.0,4184.0,7611.0,4426.0
2004-08,M,2101.0,21723.0,45795.0,18969.0
2004-09,F,477.0,4217.0,7673.0,4476.0
2004-09,M,2124.0,21827.0,46054.0,19072.0
2004-10,F,490.0,4240.0,7724.0,4523.0
2004-10,M,2158.0,21912.0,46281.0,19210.0
2004-11,F,501.0,4281.0,7738.0,4620.0
2004-11,M,2214.0,22014.0,46388.0,19400.0
2004-12,F,501.0,4304.0,7754.0,4695.0
2004-12,M,2240.0,22095.0,46524.0,19601.0
2005-01,F,501.0,4304.0,7764.0,4709.0
2005-01,M,2243.0,22096.0,46586.0,19621.0
2005-02,F,503.0,4304.0,7764.0,4711.0
2005-02,M,2244.0,22096.0,46586.0,19637.0
2005-03,F,505.0,4366.0,7783.0,4720.0
2005-03,M,2247.0,22219.0,46694.0,19681.0
2005-04,F,505.0,4437.0,7877.0,4768.0
2005-04,M,2259.0,22415.0,46952.0,19823.0
2005-05,F,513.0,4531.0,7936.0,4817.0
2005-05,M,2281.0,22740.0,47176.0,20042.0
2005-06,F,523.0,4565.0,7999.0,4867.0
2005-06,M,2320.0,22943.0,47392.0,20313.0
2005-07,F,524.0,4631.0,8027.0,5230.0
2005-07,M,2321.0,23099.0,47580.0,21900.0
2005-08,F,524.0,4631.0,8027.0,5251.0
2005-08,M,2321.0,23101.0,47580.0,21962.0
2005-09,F,525.0,4706.0,8104.0,5275.0
2005-09,M,2331.0,23242.0,47786.0,22077.0
2005-10,F,535.0,4727.0,8164.0,5295.0
2005-10,M,2366.0,23367.0,47892.0,22163.0
2005-11,F,536.0,4743.0,8184.0,5325.0
2005-11,M,2373.0,23397.0,48014.0,22329.0
2005-12,F,539.0,4752.0,8230.0,5358.0
2005-12,M,2393.0,23473.0,48172.0,22424.0
2006-01,F,540.0,4790.0,8319.0,5416.0
2006-01,M,2406.0,23564.0,48374.0,22645.0
2006-02,F,540.0,4830.0,8422.0,5540.0
2006-02,M,2408.0,23704.0,48607.0,22933.0
2006-03,F,547.0,4885.0,8495.0,5612.0
2006-03,M,2417.0,23883.0,48815.0,23189.0
2006-04,F,547.0,4918.0,8569.0,5676.0
2006-04,M,2426.0,23995.0,49057.0,23385.0
2006-05,F,553.0,4973.0,8618.0,5756.0
2006-05,M,2431.0,24116.0,49275.0,23685.0
2006-06,F,553.0,5012.0,8687.0,5821.0
2006-06,M,2434.0,24277.0,49488.0,23960.0
2006-07,F,555.0,5068.0,8746.0,5874.0
2006-07,M,2441.0,24416.0,49681.0,24490.0
2006-08,F,555.0,5068.0,8746.0,5899.0
2006-08,M,2444.0,24416.0,49681.0,24510.0
2006-09,F,555.0,5101.0,8786.0,5913.0
2006-09,M,2446.0,24515.0,49822.0,24663.0
2006-10,F,556.0,5127.0,8827.0,5982.0
2006-10,M,2461.0,24621.0,50011.0,25013.0
2006-11,F,569.0,5135.0,8877.0,6023.0
2006-11,M,2498.0,24683.0,50228.0,25212.0
2006-12,F,585.0,5144.0,8917.0,6057.0
2006-12,M,2521.0,24757.0,50386.0,25333.0
2007-01,F,585.0,5165.0,9001.0,6175.0
2007-01,M,2521.0,24862.0,50653.0,26354.0
2007-02,F,585.0,5206.0,9061.0,6228.0
2007-02,M,2523.0,24971.0,50896.0,26657.0
2007-03,F,595.0,5249.0,9154.0,6545.0
2007-03,M,2542.0,25127.0,51169.0,26947.0
2007-04,F,598.0,5273.0,9222.0,6578.0
2007-04,M,2562.0,25208.0,51318.0,27107.0
2007-05,F,605.0,5302.0,9302.0,6626.0
2007-05,M,2576.0,25321.0,51621.0,27379.0
2007-06,F,606.0,5313.0,9353.0,6667.0
2007-06,M,2586.0,25421.0,51847.0,27572.0
2007-07,F,608.0,5345.0,9423.0,6701.0
2007-07,M,2597.0,25553.0,52160.0,27839.0
2007-08,F,608.0,5345.0,9423.0,6705.0
2007-08,M,2598.0,25553.0,52160.0,27910.0
2007-09,F,609.0,5358.0,9463.0,6726.0
2007-09,M,2633.0,25632.0,52330.0,27957.0
2007-10,F,611.0,5381.0,9506.0,6740.0
2007-10,M,2665.0,25765.0,52484.0,28045.0
2007-11,F,623.0,5385.0,9572.0,6776.0
2007-11,M,2696.0,25823.0,52761.0,28772.0
2007-12,F,624.0,5399.0,9616.0,6823.0
2007-12,M,2699.0,25978.0,53013.0,29009.0
2008-01,F,632.0,5427.0,9695.0,6842.0
2008-01,M,2745.0,26208.0,53287.0,29087.0
2008-02,F,640.0,5486.0,9781.0,6868.0
2008-02,M,2769.0,26530.0,53506.0,29156.0
2008-03,F,657.0,5536.0,9877.0,6881.0
2008-03,M,2817.0,26757.0,53744.0,29236.0
2008-04,F,659.0,5599.0,9935.0,6906.0
2008-04,M,2848.0,27138.0,53992.0,29348.0
2008-05,F,663.0,5615.0,10023.0,6927.0
2008-05,M,2852.0,27305.0,54222.0,29399.0
2008-06,F,669.0,5644.0,10100.0,6937.0
2008-06,M,2891.0,27533.0,54444.0,29454.0
2008-07,F,676.0,5705.0,10195.0,7018.0
2008-07,M,2938.0,27884.0,54789.0,29992.0
2008-08,F,685.0,5705.0,10195.0,7018.0
2008-08,M,2957.0,27884.0,54789.0,29998.0
2008-09,F,694.0,5746.0,10245.0,7024.0
2008-09,M,3004.0,28005.0,54991.0,30024.0
2008-10,F,699.0,5769.0,10361.0,7052.0
2008-10,M,3023.0,28265.0,55295.0,30546.0
2008-11,F,727.0,5791.0,10399.0,7055.0
2008-11,M,3114.0,28367.0,55450.0,30575.0
2008-12,F,741.0,5851.0,10502.0,7064.0
2008-12,M,3180.0,28519.0,55747.0,30604.0
2009-01,F,759.0,5880.0,10575.0,7627.0
2009-01,M,3256.0,28763.0,56035.0,30629.0
2009-02,F,767.0,5923.0,10636.0,8188.0
2009-02,M,3272.0,29096.0,56205.0,30728.0
2009-03,F,771.0,5989.0,10758.0,8194.0
2009-03,M,3277.0,29485.0,56544.0,30772.0
2009-04,F,778.0,6103.0,10850.0,8233.0
2009-04,M,3306.0,30033.0,56813.0,30804.0
2009-05,F,780.0,6221.0,10969.0,8238.0
2009-05,M,3316.0,30315.0,57109.0,31070.0
2009-06,F,793.0,6328.0,11055.0,8242.0
2009-06,M,3328.0,30784.0,57437.0,31111.0
2009-07,F,798.0,6412.0,11184.0,8246.0
2009-07,M,3353.0,31438.0,57820.0,32189.0
2009-08,F,799.0,6412.0,11184.0,8246.0
2009-08,M,3358.0,31438.0,57820.0,32192.0
2009-09,F,804.0,6412.0,11187.0,8246.0
2009-09,M,3399.0,31438.0,57830.0,32196.0
2009-10,F,806.0,6488.0,11191.0,8247.0
2009-10,M,3414.0,31670.0,57838.0,32198.0
2009-11,F,837.0,6727.0,11292.0,8252.0
2009-11,M,3480.0,32500.0,58105.0,32519.0
2009-12,F,865.0,6882.0,11330.0,8504.0
2009-12,M,3518.0,32984.0,58236.0,32860.0
2010-01,F,882.0,6990.0,11433.0,8657.0
2010-01,M,3545.0,33348.0,58438.0,33683.0
2010-02,F,893.0,7069.0,11475.0,8960.0
2010-02,M,3578.0,33527.0,58565.0,34083.0
2010-03,F,902.0,7268.0,11601.0,9575.0
2010-03,M,3597.0,34106.0,58818.0,35642.0
2010-04,F,929.0,7520.0,11677.0,9624.0
2010-04,M,3670.0,34822.0,59083.0,35773.0
2010-05,F,938.0,7784.0,11800.0,9759.0
2010-05,M,3681.0,35601.0,59389.0,36827.0
2010-06,F,955.0,8162.0,11900.0,10375.0
2010-06,M,3730.0,36821.0,59680.0,38077.0
2010-07,F,967.0,8496.0,12019.0,10407.0
2010-07,M,3785.0,37945.0,59919.0,38212.0
2010-08,F,999.0,8496.0,12019.0,10411.0
2010-08,M,3824.0,37947.0,59919.0,38232.0
2010-09,F,1023.0,8651.0,12112.0,10506.0
2010-09,M,3888.0,38378.0,60114.0,39748.0
2010-10,F,1037.0,8878.0,12232.0,10895.0
2010-10,M,3916.0,39015.0,60379.0,40246.0
2010-11,F,1071.0,8965.0,12317.0,11685.0
2010-11,M,3993.0,39323.0,60605.0,41744.0
2010-12,F,1108.0,9151.0,12405.0,11789.0
2010-12,M,4042.0,39878.0,60862.0,41948.0
2011-01,F,1133.0,9385.0,12544.0,11811.0
2011-01,M,4111.0,40592.0,61233.0,42012.0
2011-02,F,1158.0,9659.0,12684.0,12076.0
2011-02,M,4144.0,41419.0,61555.0,42186.0
2011-03,F,1200.0,10521.0,12791.0,12397.0
2011-03,M,4244.0,43982.0,61872.0,44071.0
2011-04,F,1201.0,10522.0,12823.0,12402.0
2011-04,M,4245.0,43997.0,61944.0,44080.0
2011-05,F,1223.0,10522.0,12838.0,12409.0
2011-05,M,4298.0,43997.0,61973.0,44080.0
2011-06,F,1240.0,10545.0,12850.0,12412.0
2011-06,M,4348.0,44053.0,62013.0,44089.0
2011-07,F,1261.0,10712.0,12915.0,12435.0
2011-07,M,4409.0,44418.0,62244.0,46610.0
2011-08,F,1300.0,10789.0,12945.0,12551.0
2011-08,M,4463.0,44603.0,62345.0,47085.0
2011-09,F,1318.0,10942.0,13139.0,12577.0
2011-09,M,4517.0,45055.0,62836.0,47139.0
2011-10,F,1353.0,11041.0,13236.0,12695.0
2011-10,M,4574.0,45291.0,63063.0,47660.0
2011-11,F,1373.0,11086.0,13314.0,12890.0
2011-11,M,4621.0,45423.0,63332.0,48228.0
2011-12,F,1398.0,11208.0,13420.0,13172.0
2011-12,M,4699.0,45692.0,63618.0,49059.0
2012-01,F,1423.0,11399.0,13559.0,13336.0
2012-01,M,4751.0,46102.0,63926.0,49648.0
2012-02,F,1458.0,11572.0,13676.0,13370.0
2012-02,M,4823.0,46507.0,64245.0,49746.0
2012-03,F,1478.0,11744.0,13821.0,13642.0
2012-03,M,4880.0,46958.0,64633.0,50229.0
2012-04,F,1495.0,11857.0,13904.0,13753.0
2012-04,M,4919.0,47327.0,64921.0,50445.0
2012-05,F,1507.0,11997.0,14012.0,13768.0
2012-05,M,4955.0,47710.0,65240.0,50582.0
2012-06,F,1534.0,12160.0,14108.0,13788.0
2012-06,M,5019.0,48351.0,65558.0,50658.0
2012-07,F,1549.0,12268.0,14225.0,13800.0
2012-07,M,5091.0,48719.0,65804.0,50692.0
2012-08,F,1551.0,12272.0,14225.0,13808.0
2012-08,M,5104.0,48723.0,65804.0,50712.0
2012-09,F,1594.0,12386.0,14294.0,14137.0
2012-09,M,5185.0,48967.0,66081.0,50725.0
2012-10,F,1614.0,12494.0,14432.0,14457.0
2012-10,M,5214.0,49241.0,66427.0,51473.0
2012-11,F,1633.0,12562.0,14494.0,14993.0
2012-11,M,5224.0,49442.0,66626.0,53186.0
2012-12,F,1649.0,12664.0,14618.0,15257.0
2012-12,M,5269.0,49669.0,66914.0,54605.0
2013-01,F,1672.0,12846.0,14765.0,15283.0
2013-01,M,5332.0,50041.0,67253.0,54885.0
2013-02,F,1693.0,13020.0,14869.0,15298.0
2013-02,M,5362.0,50466.0,67562.0,54939.0
2013-03,F,1744.0,13195.0,15001.0,15315.0
2013-03,M,5457.0,50809.0,67826.0,55540.0
2013-04,F,1787.0,13375.0,15103.0,15376.0
2013-04,M,5571.0,51098.0,68043.0,55703.0
2013-05,F,1808.0,13551.0,15280.0,15815.0
2013-05,M,5631.0,51500.0,68350.0,56029.0
2013-06,F,1852.0,13654.0,15366.0,16097.0
2013-06,M,5763.0,51755.0,68581.0,56671.0
2013-07,F,1915.0,13747.0,15480.0,16424.0
2013-07,M,5866.0,51958.0,68851.0,56699.0
2013-08,F,1930.0,13759.0,15480.0,16432.0
2013-08,M,5875.0,51992.0,68851.0,56709.0
2013-09,F,1934.0,13848.0,15513.0,16433.0
2013-09,M,5885.0,52151.0,68914.0,56748.0
2013-10,F,1937.0,13992.0,15642.0,16449.0
2013-10,M,5895.0,52374.0,69183.0,56772.0
2013-11,F,1995.0,14067.0,15729.0,16461.0
2013-11,M,5981.0,52494.0,69376.0,56782.0
2013-12,F,2008.0,14206.0,15825.0,16471.0
2013-12,M,6008.0,52744.0,69568.0,56794.0
2014-01,F,2034.0,14417.0,15962.0,17471.0
2014-01,M,6076.0,53075.0,69845.0,56812.0
2014-02,F,2091.0,14636.0,16138.0,17510.0
2014-02,M,6195.0,53507.0,70141.0,56885.0
2014-03,F,2149.0,14772.0,16278.0,17785.0
2014-03,M,6346.0,53828.0,70377.0,57959.0
2014-04,F,2180.0,15020.0,16388.0,17886.0
2014-04,M,6408.0,54306.0,70578.0,58216.0
2014-05,F,2187.0,15223.0,16501.0,17955.0
2014-05,M,6427.0,54776.0,70792.0,58567.0
2014-06,F,2209.0,15348.0,16648.0,17965.0
2014-06,M,6470.0,55032.0,71084.0,58604.0
2014-07,F,2234.0,15463.0,16712.0,18183.0
2014-07,M,6516.0,55453.0,71217.0,59533.0
2014-08,F,2236.0,15463.0,16714.0,18290.0
2014-08,M,6521.0,55457.0,71233.0,59856.0
2014-09,F,2278.0,15649.0,16803.0,18437.0
2014-09,M,6581.0,55818.0,71371.0,60082.0
2014-10,F,2362.0,15797.0,16950.0,18466.0
2014-10,M,6748.0,56098.0,71718.0,60296.0
2014-11,F,2376.0,15894.0,17023.0,18475.0
2014-11,M,6771.0,56335.0,71879.0,60318.0
2014-12,F,2406.0,16201.0,17118.0,18479.0
2014-12,M,6844.0,56948.0,72094.0,60332.0
2015-01,F,2453.0,16368.0,17243.0,18488.0
2015-01,M,6939.0,57229.0,72314.0,60375.0
2015-02,F,2471.0,16663.0,17383.0,18492.0
2015-02,M,6971.0,57776.0,72551.0,60393.0
2015-03,F,2554.0,17135.0,17496.0,18496.0
2015-03,M,7121.0,58550.0,72804.0,60409.0
2015-04,F,2603.0,17540.0,17649.0,18514.0
2015-04,M,7216.0,59156.0,73044.0,60449.0
2015-05,F,2653.0,17936.0,17787.0,18538.0
2015-05,M,7292.0,59904.0,73284.0,60517.0
2015-06,F,2691.0,18366.0,17926.0,18545.0
2015-06,M,7359.0,60670.0,73501.0,60527.0
2015-07,F,2707.0,18483.0,18004.0,19515.0
2015-07,M,7386.0,60968.0,73678.0,68278.0
2015-08,F,2746.0,18483.0,18004.0,19515.0
2015-08,M,7453.0,60968.0,73678.0,68280.0
2015-09,F,2773.0,18483.0,18008.0,19518.0
2015-09,M,7500.0,60968.0,73682.0,68281.0
2015-10,F,2800.0,18541.0,18011.0,19518.0
2015-10,M,7534.0,61066.0,73693.0,68281.0
2015-11,F,2864.0,18786.0,18109.0,19521.0
2015-11,M,7650.0,61594.0,73869.0,68303.0
2015-12,F,2894.0,19019.0,18206.0,19526.0
2015-12,M,7720.0,62114.0,74082.0,68315.0
2016-01,F,3068.0,19391.0,18312.0,19543.0
2016-01,M,8002.0,63018.0,74323.0,68619.0
2016-02,F,3068.0,19613.0,18419.0,19691.0
2016-02,M,8002.0,63452.0,74517.0,68825.0
2016-03,F,3358.0,19806.0,18545.0,19704.0
2016-03,M,8405.0,63779.0,74761.0,68875.0
2016-04,F,3465.0,20476.0,18667.0,19740.0
2016-04,M,8558.0,65143.0,75007.0,69289.0
2016-05,F,3570.0,20863.0,18794.0,20210.0
2016-05,M,8697.0,65909.0,75289.0,70022.0
2016-06,F,3862.0,21151.0,18932.0,20505.0
2016-06,M,9055.0,66532.0,75540.0,70477.0
2016-07,F,4102.0,21394.0,19018.0,20582.0
2016-07,M,9376.0,66978.0,75691.0,72414.0
2016-08,F,4135.0,21414.0,19018.0,20984.0
2016-08,M,9424.0,67018.0,75691.0,74012.0
2016-09,F,4335.0,21601.0,19098.0,21089.0
2016-09,M,9669.0,67413.0,75918.0,74131.0
2016-10,F,4553.0,21907.0,19277.0,21135.0
2016-10,M,9956.0,68067.0,76161.0,74498.0
2016-11,F,4666.0,22025.0,19406.0,21170.0
2016-11,M,10105.0,68293.0,76399.0,74567.0
2016-12,F,4882.0,22247.0,19500.0,21199.0
2016-12,M,10429.0,68696.0,76525.0,74909.0
2017-01,F,5037.0,22527.0,19606.0,21236.0
2017-01,M,10589.0,69259.0,76732.0,75090.0
2017-02,F,5231.0,22833.0,19787.0,21280.0
2017-02,M,10852.0,69877.0,77076.0,75139.0
2017-03,F,5550.0,23670.0,19967.0,21370.0
2017-03,M,11193.0,71352.0,77435.0,75243.0
2017-04,F,5730.0,23907.0,20113.0,21388.0
2017-04,M,11371.0,71891.0,77666.0,75294.0
2017-05,F,6042.0,24212.0,20220.0,21423.0
2017-05,M,11762.0,72529.0,77877.0,76058.0
2017-06,F,6479.0,24517.0,20337.0,21461.0
2017-06,M,12308.0,73132.0,78130.0,77121.0
2017-07,F,6620.0,24766.0,20435.0,21503.0
2017-07,M,12495.0,73622.0,78299.0,77200.0
2017-08,F,6703.0,24793.0,20435.0,21507.0
2017-08,M,12600.0,73667.0,78299.0,77210.0
2017-09,F,7067.0,24967.0,20480.0,21532.0
2017-09,M,12999.0,73978.0,78405.0,77256.0
2017-10,F,7258.0,25313.0,20606.0,21550.0
2017-10,M,13258.0,74643.0,78676.0,77299.0
2017-11,F,7469.0,25591.0,20723.0,21568.0
2017-11,M,13470.0,75173.0,78927.0,77343.0
2017-12,F,7576.0,25889.0,20840.0,21594.0
2017-12,M,13611.0,75774.0,79097.0,77697.0
2018-01,F,7721.0,26281.0,20960.0,21639.0
2018-01,M,13824.0,76607.0,79322.0,77779.0
2018-02,F,7800.0,26756.0,21101.0,21649.0
2018-02,M,13935.0,77449.0,79534.0,77993.0
2018-03,F,8015.0,27252.0,21292.0,21670.0
2018-03,M,14219.0,78402.0,79889.0,78056.0
2018-04,F,8075.0,27437.0,21418.0,21689.0
2018-04,M,14310.0,78791.0,80148.0,78099.0
2018-05,F,8374.0,27437.0,21501.0,21734.0
2018-05,M,14698.0,78791.0,80322.0,78668.0
2018-06,F,8593.0,27437.0,21501.0,22133.0
2018-06,M,14980.0,78791.0,80322.0,78925.0
2018-07,F,8624.0,27437.0,21501.0,22138.0
2018-07,M,15002.0,78791.0,80322.0,78940.0
2018-08,F,8681.0,27437.0,21501.0,22138.0
2018-08,M,15064.0,78791.0,80322.0,78940.0
2018-09,F,8705.0,27437.0,21501.0,22138.0
2018-09,M,15096.0,78791.0,80322.0,78940.0
2018-10,F,8749.0,27437.0,21501.0,22138.0
2018-10,M,15158.0,78791.0,80322.0,78940.0
2018-12,F,8820.0,27437.0,21501.0,22138.0
2018-12,M,15244.0,78791.0,80322.0,78940.0
